{
  "store.custom#como-comprar": {
    "blocks": [
      "responsive-layout.desktop#como-comprar",
      "responsive-layout.mobile#como-comprar-mobile"
    ]
  },

  "responsive-layout.desktop#como-comprar": {
    "children": ["rich-text#title-comocomprar", "image#comocomprar"]
  },

  "rich-text#title-comocomprar": {
    "props": {
      "text": "COMO COMPRAR",
      "blockClass": "title-comprar"
    }
  },

  "image#comocomprar": {
    "props": {
      "src": "/arquivos/comocomprar.png",
      "maxHeight": "",
      "maxWidth": "",
      "blockClass": "storePrint"
    }
  },
  "responsive-layout.mobile#como-comprar-mobile":{
    "children":[
      "rich-text#title-comocomprar-mobile",
      "image#comocomprar-mobile"
    ]
  },

  "rich-text#title-comocomprar-mobile": {
    "props": {
      "text": "COMO COMPRAR",
      "blockClass": "title-mobile"
    }
  },

  "image#comocomprar-mobile": {
    "props": {
      "src": "/arquivos/compra-mobile.png",
      "blockClass": "storePrint-mobile"
    }
  }
}
