{
  "store.custom#contactenos": {
    "blocks": [
      "rich-text#title-contactenos", 
      "flex-layout.row#form-contacto"
    ]
  },

  "rich-text#title-contactenos": {
    "props": {
      "text": "CONTÁCTENOS",
      "textAlignment": "CENTER",
      "textPosition": "CENTER",
      "blockClass": "title-contactenos"
    }
   },
   "flex-layout.row#form-contacto": {
    "children": ["flex-layout.col#form-contacto"]
  }
  ,
   "flex-layout.col#form-contacto": {
      "children": ["form#contacto"],
      "props": {
        "blockClass":"form-contacto"
      }
   },
   "form#contacto": {
    "props": {
      "entity": "FC",
      "schema": "formularioContacto"
    },
    "children": [
      "rich-text#formTitle",
      "form-input.text#nombres-contacto",
      "form-input.text#email-contacto",
      "form-input.text#telefono-contacto",
      "form-input.dropdown#tipo-solicitud-contacto",
      "form-input.textarea#comentario-contacto",
      "form-submit#contacto"
    ],
    "blocks": ["form-success#contacto"]
  },
  "form-success#contacto": {
    "children": [
      "rich-text#successSubmitContacto"
    ]
  },
  "rich-text#formTitle":{
    "props":{
        "text": "Escríbenos a ecommerce@stevemaddenperu.com",
        "textAlignment": "CENTER",
        "textPosition": "CENTER",
        "blockClass":"form-title-contacto"
    }
},
  "rich-text#successSubmitContacto": {
    "props": {
      "text": "Formulario enviado con éxito.",
      "textAlignment": "CENTER",
      "textPosition": "CENTER"
    }
  },
  "form-input.text#nombres-contacto": {
    "props": {
      "pointer": "#/properties/nombres",
      "placeholder": "Nombres"
    }
  },
  "form-input.text#email-contacto": {
    "props": {
      "pointer": "#/properties/email",
      "placeholder": "Email"
    }
  },
  "form-input.text#telefono-contacto": {
    "props": {
      "pointer": "#/properties/telefono",
      "placeholder": "Teléfono"
    }
  },
  "form-input.dropdown#tipo-solicitud-contacto": {
    "props": {
      "pointer": "#/properties/tipoSolicitud",
      "label": "Tipo de Solicitud"
    }
  },
  "form-input.textarea#comentario-contacto": {
    "props": {
        "pointer": "#/properties/comentario",
        "placeholder": "Comentario"
    }
  },
  "form-submit#contacto": {
    "props": {
      "label": "Enviar"
    }
  }
}

