{
  "store.custom#legales-promociones": {
    "blocks": [
      "flex-layout.row#legales-promociones"
    ]
  },

  "flex-layout.row#legales-promociones": {
    "children": [
      "flex-layout.col#text-legales-promociones"
    ]
  },

  "flex-layout.col#text-legales-promociones": {
    "children": [
      "rich-text#title-legales-promociones",
      "rich-text#legales-promociones"
    ],
    "props": {
      "blockclass": "textColumn",
      "preventVerticalStretch": true
    }
  },

  "rich-text#title-legales-promociones": {
    "props": {
      "text":
      "FLASH SALE: HASTA 30% DE DESCUENTO ",
      "blockClass": "title"
    }
  },

  "rich-text#legales-promociones": {
    "props": {
      "text": "Evento exclusivo a través de www.coliseum.com.pe no válido en tiendas físicas. Evento válido desde las 14:00 hrs del lunes 28 de junio del 2021 hasta las 23:59 hrs del domingo 04 de julio del 2021 y/o hasta agotar stock. Los porcentajes de descuento son aplicados en el precio mostrado de productos seleccionados (los productos están identificados con un flag que indica el porcentaje de descuento). Los productos de “FLASH SALE” no son acumulables con otros descuentos, promociones, vales y/o cupones. La actualización de los precios puede tardar unos minutos finalizado el contador del evento, por lo que se debe considerar el precio indicado en el Carrito de Compras o CHECK OUT. Las imágenes y los productos de campaña (banners, publicidad, mailing, botones y landing) son referenciales y están sujetos a disponibilidad de stock. No se aceptan cambios y/o devoluciones de los productos en SALE, productos con descuento y/o durante compras de productos en campaña. Stock limitado. El tiempo de espera para el pago de las compras realizadas por PAGOEFECTIVO es de 08 horas. Luego de dicho plazo, el stock deja de estar reservado y no se podrá asegurar la disponibilidad del artículo.",
      "blockClass": "about"
    }
  }
}
