{
  "store.custom#politica-de-privacidad": {
    "blocks": [
      "flex-layout.row#politica-de-privacidad"
    ]
  },

  "flex-layout.row#politica-de-privacidad": {
    "children": [
      "flex-layout.col#text-politica-de-privacidad"
    ]
  },

  "flex-layout.col#text-politica-de-privacidad": {
    "children": [
      "rich-text#title-politica-de-privacidad",
      "rich-text#politica-de-privacidad"
    ],
    "props": {
      "blockclass": "textColumn",
      "preventVerticalStretch": true
    }
  },

  "rich-text#title-politica-de-privacidad": {
    "props": {
      "text":
      "POLÍTICA DE PRIVACIDAD",
      "blockClass": "title"
    }
  },

  "rich-text#politica-de-privacidad": {
    "props": {
      "text": "Antes de acceder a los servicios ofrecidos por la empresa SOLIDEZ EMPRESARIAL S.A. CON SU MARCA COMERCIAL COLISEUM (en adelante LA EMPRESA) a través de su sitio web  WWW.COLISEUM.COM.PE,",
      "blockClass": "about"
    }
  }
}
