{
  "store.custom#preguntas-frecuentes": {
    "children": [
      "flex-layout.row#preguntas-frecuentes"
    ]
  },

  "flex-layout.row#preguntas-frecuentes": {
    "props": {
      "blockClass": "faq"
    },
    "children": [
      "flex-layout.col#preguntas-frecuentes"
    ]
  },

  "flex-layout.col#preguntas-frecuentes": {
    "children": [
      "rich-text#preguntas-frecuentes",
      "disclosure-layout-group#preguntas-frecuentes"
    ]
  },
  "rich-text#preguntas-frecuentes": {
    "props": {
      "text": "PREGUNTAS FRECUENTES",
      "blockClass": "preguntas-frecuentes"
    }
  },

  "disclosure-layout-group#preguntas-frecuentes": {
    "children": [
      "disclosure-layout#first-preguntas-frecuentes",
      "disclosure-layout#second-preguntas-frecuentes",
      "disclosure-layout#third-preguntas-frecuentes",
      "disclosure-layout#fourth-preguntas-frecuentes",
      "disclosure-layout#five-preguntas-frecuentes",
      "disclosure-layout#six-preguntas-frecuentes",
      "disclosure-layout#seven-preguntas-frecuentes"
    ]
  },

  "disclosure-layout#first-preguntas-frecuentes": {
    "props": {
      "animated": true
    },
    "children": ["disclosure-trigger#first-preguntas-frecuentes", "disclosure-content#first-preguntas-frecuentes"]
  },
  "disclosure-trigger#first-preguntas-frecuentes": {
    "props": {
      "blockClass": "question",
      "as": "div"
    },
    "children": ["disclosure-state-indicator", "rich-text#question1-preguntas-frecuentes"]
  },
  "disclosure-content#first-preguntas-frecuentes": {
    "props": {
      "blockClass": "answer"
    },
    "children": ["rich-text#answer1-preguntas-frecuentes"]
  },
  "rich-text#question1-preguntas-frecuentes": {
    "props": {
      "text": "¿Cómo realizo el cambio de una compra en Stevemaddenpe.com desde una tienda física?"
    }
  },
  "rich-text#answer1-preguntas-frecuentes": {
    "props": {
      "text": "Para cambios de talla o artículo(s), la coordinación será previamente con nuestro Servicio de Atención al Cliente a través de ecommerce@coliseum-store.com.<br>El cambio podrá realizarse siempre y cuando cumplan las siguientes condiciones:<br>- Producto exclusivamente comprado a través de WWW.STEVEMADDENPERU.COM<br>- Hasta 7 días calendario luego de haber recibido el producto.<br>- El artículo debe estar nuevo, sin uso y con etiquetas, adicionalmente el empaque debe estar en buenas condiciones.<br>- No se permiten cambios en tiendas Outlet.<br>- No se hacen cambios de productos adquiridos en SALE o con descuento por alguna promoción activa o vigente.<br>- Las devoluciones por calidad únicamente podrán realizarse vía nuestro Servicio de Atención a Clientes.<br>**Proceso de cambio aprobado por Stevemadden:**<br>- Deberás mostrar el mensaje de confirmación en tienda, enviado por nuestro Servicio de Atención al cliente a través de nuestros canales oficiales."
    }
  },

  "disclosure-layout#second-preguntas-frecuentes": {
    "props": {
      "animated": true
    },
    "children": ["disclosure-trigger#second-preguntas-frecuentes", "disclosure-content#second-preguntas-frecuentes"]
  },
  "disclosure-trigger#second-preguntas-frecuentes": {
    "props": {
      "blockClass": "question",
      "as": "div"
    },
    "children": ["disclosure-state-indicator", "rich-text#question2-preguntas-frecuentes"]
  },
  "disclosure-content#second-preguntas-frecuentes": {
    "props": {
      "blockClass": "answer"
    },
    "children": ["rich-text#answer2-preguntas-frecuentes"]
  },
  "rich-text#question2-preguntas-frecuentes": {
    "props": {
      "text": "¿Se puede cambiar un producto por otro?"
    }
  },
  "rich-text#answer2-preguntas-frecuentes": {
    "props": {
      "text": "<br>- Se podrán realizar cambios de talla o artículo, previa coordinación con nuestro Servicio de Atención al Cliente a través de ecommerce@coliseum-store.com<br>- Indicar el nombre del artículo, código y talla que se desea cambiar.<br>- Se podrá elegir artículos de un mayor valor al adquirido y pagar la diferencia.<br>- En caso de elegir artículos de menor valor, no se devolverá la diferencia.<br>- Se puede cambiar un artículo por dos o más siempre y cuando el valor del artículo pagado inicialmente sea igual a la sumatoria de los nuevos artículos.<br>- Los cambios en general, se realizan sujeto a disponibilidad de stock de nuestras tiendas físicas."
    }
  },


  "disclosure-layout#third-preguntas-frecuentes": {
    "props": {
      "animated": true
    },
    "children": ["disclosure-trigger#third-preguntas-frecuentes", "disclosure-content#third-preguntas-frecuentes"]
  },
  "disclosure-trigger#third-preguntas-frecuentes": {
    "props": {
      "blockClass": "question",
      "as": "div"
    },
    "children": ["disclosure-state-indicator", "rich-text#question3-preguntas-frecuentes"]
  },
  "disclosure-content#third-preguntas-frecuentes": {
    "props": {
      "blockClass": "answer"
    },
    "children": ["rich-text#answer3-preguntas-frecuentes"]
  },
  "rich-text#question3-preguntas-frecuentes": {
    "props": {
      "text": "¿Cómo es el proceso de devolución de un pedido en Stevemaddenperu.com?"
    }
  },
  "rich-text#answer3-preguntas-frecuentes": {
    "props": {
      "text": "<br>- Inicia tu proceso de devolución comunicándote con nuestro Servicio de Atención al cliente a través de ecommerce@coliseum-store.com.<br>- Tienes un plazo de hasta 7 días calendarios a partir de la fecha de recepción del producto.<br>- Asegúrate de empaquetar los artículos en su embalaje original y que todos los productos de ropa, calzado o accesorios lleven las etiquetas originales.<br>- Deberás enviar el producto a la dirección que te indiquemos y el costo será asumido por el cliente.<br>- Una vez que el pedido sea recibido en nuestro almacén, validado y autorizado, recibirás vía mail una notificación que tu devolución fue exitosamente procesada.<br><br>**NOTA:** El tiempo para tu devolución dependerá de la fecha en la que envíes el producto, aunque una vez recibida la procesaremos lo más rápido posible."
    }
  },


  "disclosure-layout#fourth-preguntas-frecuentes": {
    "props": {
      "animated": true
    },
    "children": ["disclosure-trigger#fourth-preguntas-frecuentes", "disclosure-content#fourth-preguntas-frecuentes"]
  },
  "disclosure-trigger#fourth-preguntas-frecuentes": {
    "props": {
      "blockClass": "question",
      "as": "div"
    },
    "children": ["disclosure-state-indicator", "rich-text#question4-preguntas-frecuentes"]
  },
  "disclosure-content#fourth-preguntas-frecuentes": {
    "props": {
      "blockClass": "answer"
    },
    "children": ["rich-text#answer4-preguntas-frecuentes"]
  },
  "rich-text#question4-preguntas-frecuentes": {
    "props": {
      "text": "¿Cuándo recibiré mi reembolso después de una devolución?"
    }
  },
  "rich-text#answer4-preguntas-frecuentes": {
    "props": {
      "text": "<br>- El tiempo de reembolso dependerá del método de pago utilizado en tu compra: Tarjetas y Pago Efectivo.<br>- Tarjetas de crédito: El reembolso puede ser verificado dentro un plazo de 25 a 30 días hábiles.<br>- Pago efectivo: El reembolso se realizará a una cuenta de ahorros de la persona que hizo la compra. El tiempo para la devolución es de 10 días hábiles .<br>**NOTA:** No realizamos extornos parciales."
    }
  },

  "disclosure-layout#five-preguntas-frecuentes": {
    "props": {
      "animated": true
    },
    "children": ["disclosure-trigger#five-preguntas-frecuentes", "disclosure-content#five-preguntas-frecuentes"]
  },
  "disclosure-trigger#five-preguntas-frecuentes": {
    "props": {
      "blockClass": "question",
      "as": "div"
    },
    "children": ["disclosure-state-indicator", "rich-text#question5-preguntas-frecuentes"]
  },
  "disclosure-content#five-preguntas-frecuentes": {
    "props": {
      "blockClass": "answer"
    },
    "children": ["rich-text#answer5-preguntas-frecuentes"]
  },
  "rich-text#question5-preguntas-frecuentes": {
    "props": {
      "text": "¿Cómo contacto con Servicio al Cliente?"
    }
  },
  "rich-text#answer5-preguntas-frecuentes": {
    "props": {
      "text": "Nuestro canal oficial de comunicación es a través de ecommerce@coliseum-store.com."
    }
  },

  "disclosure-layout#six-preguntas-frecuentes": {
    "props": {
      "animated": true
    },
    "children": ["disclosure-trigger#six-preguntas-frecuentes", "disclosure-content#six-preguntas-frecuentes"]
  },
  "disclosure-trigger#six-preguntas-frecuentes": {
    "props": {
      "blockClass": "question",
      "as": "div"
    },
    "children": ["disclosure-state-indicator", "rich-text#question6-preguntas-frecuentes"]
  },
  "disclosure-content#six-preguntas-frecuentes": {
    "props": {
      "blockClass": "answer"
    },
    "children": ["rich-text#answer6-preguntas-frecuentes"]
  },
  "rich-text#question6-preguntas-frecuentes": {
    "props": {
      "text": "¿Cómo contacto con Servicio al Cliente?"
    }
  },
  "rich-text#answer6-preguntas-frecuentes": {
    "props": {
      "text": "Nuestro canal oficial de comunicación es a través de ecommerce@coliseum-store.com."
    }
  },

  "disclosure-layout#seven-preguntas-frecuentes": {
    "props": {
      "animated": true
    },
    "children": ["disclosure-trigger#seven-preguntas-frecuentes", "disclosure-content#seven-preguntas-frecuentes"]
  },
  "disclosure-trigger#seven-preguntas-frecuentes": {
    "props": {
      "blockClass": "question",
      "as": "div"
    },
    "children": ["disclosure-state-indicator", "rich-text#question7-preguntas-frecuentes"]
  },
  "rich-text#question7-preguntas-frecuentes": {
    "props": {
      "text": "¿Cómo contacto con Servicio al Cliente?"
    }
  },  
  "disclosure-content#seven-preguntas-frecuentes": {
    "props": {
      "blockClass": "answer"
    },
    "children": [
      "flex-layout.row#ubigeo-titulo",
      "flex-layout.row#ubigeo-contenido"
    ]
  },
  "flex-layout.row#ubigeo-titulo": {
    "children": [
      "flex-layout.col#ubigeo-titulo-01",
      "flex-layout.col#ubigeo-titulo-02",
      "flex-layout.col#ubigeo-titulo-03"
    ],
    "props": {
      "blockClass": "ubigeo-titulo-contenedor"
    }    
  },
  "flex-layout.col#ubigeo-titulo-01": {
    "children": ["rich-text#ubigeo-titulo-01"]
  },
  "rich-text#ubigeo-titulo-01": {
    "props": {
      "text": "Departamento",
      "blockClass": "ubigeo-titulo"
    }
  },
  "flex-layout.col#ubigeo-titulo-02": {
    "children": ["rich-text#ubigeo-titulo-02"]
  },
  "rich-text#ubigeo-titulo-02": {
    "props": {
      "text": "Provincia",
      "blockClass": "ubigeo-titulo"
    }
  },
  "flex-layout.col#ubigeo-titulo-03": {
    "children": ["rich-text#ubigeo-titulo-03"]
  },
  "rich-text#ubigeo-titulo-03": {
    "props": {
      "text": "Distrito",
      "blockClass": "ubigeo-titulo"
    }
  },    

  "flex-layout.row#ubigeo-contenido": {
    "children": [
      "flex-layout.col#ubigeo-contenido-01",
      "flex-layout.col#ubigeo-contenido-02",
      "flex-layout.col#ubigeo-contenido-03"
    ],
    "props": {
      "blockClass": "ubigeo-contenido-contenedor"
    }     
  },
  "flex-layout.col#ubigeo-contenido-01": {
    "children": ["rich-text#ubigeo-contenido-01"]
  },
  "rich-text#ubigeo-contenido-01": {
    "props": {
      "text": "Lima"
    }
  },
  "flex-layout.col#ubigeo-contenido-02": {
    "children": ["rich-text#ubigeo-contenido-02"]
  },
  "rich-text#ubigeo-contenido-02": {
    "props": {
      "text": "Lima"
    }
  },
  "flex-layout.col#ubigeo-contenido-03": {
    "children": ["rich-text#ubigeo-contenido-03"]
  },
  "rich-text#ubigeo-contenido-03": {
    "props": {
      "text": "Lima"
    }
  }, 

  
  "disclosure-state-indicator#preguntas-frecuentes": {
    "props": {
      "Show": "icon-caret#down-preguntas-frecuentes",
      "Hide": "icon-caret#up-preguntas-frecuentes"
    }
  },
  "icon-caret#down-preguntas-frecuentes": {
    "props": {
      "orientation": "down"
    }
  },
  "icon-caret#up-preguntas-frecuentes": {
    "props": {
      "orientation": "up"
    }
  }
}
