{
  "store.custom#wedding": {
    "blocks": [
      "responsive-layout.desktop#wedding",
      "responsive-layout.mobile#wedding-mobile"      
    ]
  },

  "responsive-layout.desktop#wedding": {
    "children": [
      "image#wedding-banner-horizontal-1",
      "image#wedding-banner-horizontal-2",
      "flex-layout.row#wedding-descripcion",
      "flex-layout.row#wedding-shelf",      
      "flex-layout.row#wedding-categorias",
      "flex-layout.row#wedding-secciones"
    ]
  },

  "image#wedding-banner-horizontal-1": {
    "props": {
      "src": "https://www.stevemadden.com/cdn/shop/files/The_rsvp_edit_1800x.jpg",
      "maxHeight": "",
      "maxWidth": "",
      "blockClass": ""
    }
  },
  "image#wedding-banner-horizontal-2": {
    "props": {
      "src": "https://www.stevemadden.com/cdn/shop/files/Bride_1800x.jpg",
      "maxHeight": "",
      "maxWidth": "",
      "blockClass": ""
    }
  },  
  "flex-layout.row#wedding-descripcion":{
    "children":["flex-layout.col#wedding-descripcion"]
  },
  "flex-layout.col#wedding-descripcion": {
    "children": [
      "rich-text#wedding-descripcion"
    ],
    "props": {
      "blockclass": "textColumn",
      "preventVerticalStretch": true
    }
  },
  "rich-text#wedding-descripcion": {
    "props": {
      "text": "¿Cómo encontrar el par perfecto de zapatos de novia? Si lo que te gusta es marcar la diferencia con tu calzado, estas en el lugar correcto. Hemos llamado a los expertos de Steve Madden para averiguar cómo encontrar el par perfecto de zapatos de novia.Steve Madden nos trae una temporada nupcial llena de detalles dignos del altar con su última colección de novias “Wedding Collection”.Antes de buscar zapatos, tienes que tener en cuenta tu vestido, el estilo de tu boda y la comodidad que vas a necesitar; al fin y al cabo, pasarás mucho tiempo de pie. También merece la pena pensar en el tejido adecuado para ti, ya sea satén o pedrería, transparente o piel. Y luego está el color: ¿optarías por el blanco, el metalizado, crema o champán? Hay mucho que tener en cuenta.Prepárate para disfrutar de esta nueva colección de Steve Madden: donde encontraremos mas de una tendencia en cada zapato, tacones de aguja adornados con cristales, lujosos zapatos de tela velvet con aplicación de piedras, clásicos stilettos con aplicación de encanje, altas plataformas con aplicación de perlas y brillos. Además, podrás encontrar también zapatillas con aplicación de cirstales y encaje para el momento mas intenso del día, La Fiesta. Con opciones disponibles para toda la fiesta nupcial (estamos hablando de la novia, damas de honor y madre de la novia) la colección  de Steve Madden te dejará con la boca abierta. Además, también hay diferentes alturas de tacón para cada tipo de novia. Y, si eres amante de las plataformas, prepárate para conocer la propuesta que trae la marca llena de perlas.",
      "blockClass": "wedding-descripcion"
    }
  },

  "responsive-layout.mobile#wedding-mobile":{
    "children":[
      "image#wedding-banner-horizontal-1",
      "image#wedding-banner-horizontal-2",
      "flex-layout.row#wedding-shelf",
      "flex-layout.row#wedding-categorias",
      "flex-layout.row#wedding-secciones"
    ]
  },

  "flex-layout.row#wedding-categorias":{
    "children":[
      "flex-layout.col#wedding-categorias-1",
      "flex-layout.col#wedding-categorias-2",
      "flex-layout.col#wedding-categorias-3"
    ]
  },

  "flex-layout.row#wedding-shelf":{
    "children":[
      "flex-layout.row#shelf"
    ],
    "props":{
      "blockClass": "wedding-shelf"
    }
  },
  "flex-layout.col#wedding-categorias-1":{
    "children":[
      "image#wedding-categorias-1",
      "rich-text#wedding-categoria-title-1"
    ],
    "props":{
      "blockClass": "wedding-categorias-1"
    }
  },
  "image#wedding-categorias-1": {
    "props": {
      "src": "https://www.stevemadden.com/cdn/shop/files/GUEST.jpg",
      "blockClass": ""
    }
  }, 
  "rich-text#wedding-categoria-title-1": {
    "props": {
      "text": "[WEDDING GUEST](/encuentra-tu-tienda)",
      "blockClass": "wedding-categoria-title"
    }
  },

  "flex-layout.col#wedding-categorias-2":{
    "children":[
      "image#wedding-categorias-2",
      "rich-text#wedding-categoria-title-2"
    ],
    "props":{
      "blockClass": "wedding-categorias-2"
    }
  },
  "image#wedding-categorias-2": {
    "props": {
      "src": "https://www.stevemadden.com/cdn/shop/files/GUEST.jpg"      
    }
  }, 
  "rich-text#wedding-categoria-title-2": {
    "props": {
      "text": "[WEDDING GUEST](/encuentra-tu-tienda)",
      "blockClass": "wedding-categoria-title"
    }
  },

  "flex-layout.col#wedding-categorias-3":{
    "children":[
      "image#wedding-categorias-3",
      "rich-text#wedding-categoria-title-3"
    ],
    "props":{
      "blockClass": "wedding-categorias-3"
    }
  },
  "image#wedding-categorias-3": {
    "props": {
      "src": "https://www.stevemadden.com/cdn/shop/files/GUEST.jpg",
      "blockClass": ""
    }
  },     
  "rich-text#wedding-categoria-title-3": {
    "props": {
      "text": "[WEDDING GUEST](/encuentra-tu-tienda)",
      "blockClass": "wedding-categoria-title"
    }
  },

  "flex-layout.row#wedding-secciones":{
    "children":[
      "flex-layout.col#wedding-secciones-1"
      //"flex-layout.col#wedding-secciones-2"
    ],
    "props":{
      "blockClass": "wedding-secciones"
    }
  },
  "flex-layout.col#wedding-secciones-1":{
    "children":["image#wedding-secciones-1"],
    "props":{
      "blockClass": "wedding-secciones-1"
    }
  },  
  "image#wedding-secciones-1": {
    "props": {
      "src": "/arquivos/BANNER-4-6-2024.jpg"
    }
  },
  "flex-layout.col#wedding-secciones-2":{
    "children":["image#wedding-secciones-2"],
    "props":{
      "blockClass": "wedding-secciones-2"
    }
  },  
  "image#wedding-secciones-2": {
    "props": {
      "src": "https://www.stevemadden.com/cdn/shop/files/For_The_Groom.jpg",
      "blockClass": "wedding-secciones-2"
    }
  }      
}
