{
  "footer": {
    "blocks": ["footer-layout.desktop", "footer-layout.mobile"]
  },
  "footer-layout.desktop": {
    "children": [
      "id-seccion-suscribete",
      "flex-layout.row#footer-0-desktop",
      "sandbox#footerScript01",
      "sandbox#footerScript02",
      "sandbox#footerScript03"
    ]
  },     

  "flex-layout.row#footer-0-desktop":{
    "children":[
      "flex-layout.col#footer-1-desktop",
      "flex-layout.col#footer-2-desktop"
    ],
    "props":{
      "blockClass":"main-footer-desk"
    }
  },

  "flex-layout.col#footer-1-desktop":{
    "children":[
      "flex-layout.row#footer-1-desktop"
    ],
    "props":{
      "blockClass": "col-left-footer",
      "width": "65%"
    }
  },

  "flex-layout.col#footer-2-desktop":{
    "children":[
      "rich-text#suscribete-footer-text",
      "rich-text#suscribete-footer-text-vistoso",
      //"newsletter",
      "modal-trigger#popup-footer",
      "rich-text#ruc-footer-text",
      "flex-layout.row#footer-social-networks"
    ],
    "props":{
      "blockClass": "col-right-footer",
      "width": "35%",
      "preventVerticalStretch": true
    }
  },

  "rich-text#suscribete-footer-text":{
    "props":{
      "text": "SUSCRÍBETE A NOSOTROS",
      "blockClass": "suscribete-footer-text"
    }
  },

  "rich-text#suscribete-footer-text-vistoso":{
    "props":{
      "text": "OBTÉN NOTICIAS, DESCUENTO Y OFERTAS ESPECIALES PARA NUESTRA COMUNIDAD.",
      "blockClass": ["suscribete-footer-text","suscribete-footer-text-vistoso"]
    }
  },

  "newsletter":{
    "props":{
      "label": "",
      "placeholder": "Ingrese su correo electrónico",
      "submit": "ENVIAR"
    }
  },

  "rich-text#ruc-footer-text":{
    "props":{
      "text": "RUC: 20459980963 <br> Razón Social: Solidez Empresarial",
      "blockClass": "ruc-footer-text"
    }
  },

  "flex-layout.row#footer-social-networks":{
    "children":[
      "image#facebook-logo",
      "image#instagram-logo",
      "rich-text#footer-social-networks"
    ],
    "props":{
      "preventHorizontalStretch": true,
      "blockClass": "footer-social-network-logo"
    }
  },

  "image#facebook-logo":{
    "props":{
      "src": "/arquivos/logo-facebook.png",
      "maxHeight": 20,
      "target" : "_blank",
      "link": { "url": "https://es-la.facebook.com/stevemadden.peru/" },
      "blockClass": "footer-social-network-logo"
    }
  },

  "image#instagram-logo":{
    "props":{
      "src": "/arquivos/logo-instagram.png",
      "maxHeight": 20,
      "target" : "_blank",
      "link": { "url": "https://www.instagram.com/stevemaddenperu/" },
      "blockClass": "footer-social-network-logo"
    }
  },

  "rich-text#footer-social-networks":{
    "props":{
      "text": "#STEVEMADDENPE",
      "blockClass": "footer-social-network-text"
    }
  },

  "flex-layout.row#footer-1-desktop": {
    "children": [
      //links.jsonc
      "vtex.menu@2.x:menu#HelpLinks",
      "vtex.menu@2.x:menu#CategoryLinks",
      "vtex.menu@2.x:menu#ContactLinks",
      "vtex.menu@2.x:menu#SocialLinks"
    ],
    "props":{
      "blockClass": "footer-menu-row",
      "width": "auto"
    }
  },

  "social-networks": {
    "props": {
      "socialNetworks": [
        {
          "name": "Facebook",
          "url": "https://www.facebook.com/vtexonline/"
        },
        {
          "name": "Instagram",
          "url": "https://www.instagram.com/vtextruecloud/"
        },
        {
          "name": "Twitter",
          "url": "https://twitter.com/vtexonline"
        },
        {
          "name": "Youtube",
          "url": "https://www.youtube.com/user/VTEXTV"
        }
      ]
    }
  },

  "accepted-payment-methods": {
    "props": {
      "paymentMethods": ["MasterCard", "Visa", "Diners Club"]
    }
  },

  //FOOTER MOBILE

  "footer-layout.mobile": {
    "children": [
      "flex-layout.row#1-footer-mobile",
      "flex-layout.row#2-footer-mobile",
      //"flex-layout.row#footer-social-networks",
      "rich-text#tienda-marca",
      "sandbox#footerScript01",
      "sandbox#footerScript02",
      "sandbox#footerScript03"      
    ],
    "props":{
      "blockClass": "footer-container-mobile"
    }
  },

  "flex-layout.row#1-footer-mobile": {
    "props": {
      "blockClass": "footer-main-content-mobile"
    },
    "children": ["vtex.menu@2.x:menu#footer-mobile"]
  },

  "flex-layout.row#2-footer-mobile": {
    "children": [
      "rich-text#suscribete-footer-text",
      "rich-text#suscribete-footer-text-vistoso",
      //"newsletter"
      "modal-trigger#popup-footer",
      "rich-text#ruc-footer-text",
      "flex-layout.row#footer-social-networks"
    ],
    "props":{
      "blockClass": "footer-container-newsletter-mobile"
    }
  },

  "rich-text#tienda-marca":{
    "props":{
      "text": "2021 Steve Madden Ltd.",
      "blockClass": "footer-text-tienda-marca"
    }
  },

  "modal-trigger#popup-footer": {
    "children": [
      "rich-text#click-popup",      
      "modal-layout#modal-popup"
    ]
  },

  "rich-text#click-popup": {
    "props": {
      "text": "SUSCRÍBETE",
      "blockClass": "click-popup-btn-suscribete"
    }
  },

  "modal-layout#modal-popup": {
    "children": [
      "image#img-popup",
      "rich-text#modal-content",
      "flex-layout.row#modal-form"  
    ]
  },

  "image#img-popup":{
    "props":{
      "src": "/arquivos/banner_suscribete211214.jpg",
      "blockClass": "contenedor-tallas"
    }    
  },

  "rich-text#modal-content": {
    "props": {
      "text": "SUSCRÍBETE Y OBTÉN UN 10% DE DESCUENTO EN TU PRIMERA COMPRA",
      "blockClass": "modal-titulo-suscribete"
    }
  },
  

  "flex-layout.row#modal-form": {
    "children": ["flex-layout.col#form-suscribete"]
  },

  "flex-layout.col#form-suscribete": {
    "children": ["form#suscribete"],
    "props": {
      "blockClass": "form-container-suscribete"
    }
  },

  "form#suscribete": {
    "props": { 
                "entity": "SU", 
                "schema": "schema_suscibete", 
                "blockClass": "form-suscribete-children" 
              },                     
    "blocks": ["form-success#suscribete"],
    "children": ["flex-layout.col#newsletter-inputs"]
  },
  "flex-layout.col#newsletter-inputs": {
    "title": "Newsletter Form",
    "props": {
      "blockClass": "newsletter-form"
    },
    "children": ["flex-layout.row#newsletter-form-data-1", "flex-layout.row#newsletter-form-data-2", "flex-layout.row#newsletter-form-data-3"]
  },
  "flex-layout.row#newsletter-form-data-1": {
    "props": {
      "blockClass": "newsletter-data-1"
    },
    "children": [
      "form-input.text#suscribete-nombre",
      "form-input.text#suscribete-apellidos"
      //"form-submit"
    ]
  },
  "form-input.text#suscribete-nombre": {
    "props": {
      "pointer": "#/properties/nombre",
      "placeholder": "Ingresa tu nombre",
      "label": ""
    }
  },
  "form-input.text#suscribete-apellidos": {
    "props": {
      "pointer": "#/properties/apellidos",
      "placeholder": "Ingresa tu apellido",
      "label": ""
    }
  },     

  "flex-layout.row#newsletter-form-data-2": {
    "props": {
      "blockClass": "newsletter-data-2"
    },
    "children": [
      "form-input.text#suscribete-correo",
      "form-input.dropdown#suscribete-sexo",
      "form-input.text#suscribete-cumpleanos"
    ]
  },
  "form-input.text#suscribete-correo": {
    "props": {
      "pointer": "#/properties/correo",
      "label": "",
      "placeholder": "Ingresa tu correo"
    }
  },
  "form-input.dropdown#suscribete-sexo": {
    "props": {
      "pointer": "#/properties/sexo",
      "label": "Selecciona tu sexo",
      "blockClass": "input-sexo"
    }
  }, 
  "form-input.text#suscribete-cumpleanos": {
    "props": {
      "pointer": "#/properties/cumpleanos",
      "label": "",
      "placeholder": "Ingresa tu cumpleaños DD/MM/AAAA"
    }
  }, 

  "flex-layout.row#newsletter-form-data-3": {
    "props": {
      "blockClass": "newsletter-data-3"
    },
    "children": [
      "form-input.checkbox#suscribete-terminos_condiciones",
      "form-input.checkbox#suscribete-politicas_privacidad",
      "form-submit#suscribete"
    ]
  },
  "form-input.checkbox#suscribete-terminos_condiciones": {
    "props": {
      "pointer": "#/properties/terminos_condiciones"
    }
  },
  "form-input.checkbox#suscribete-politicas_privacidad": {
    "props": {
      "pointer": "#/properties/politicas_privacidad"
    }
  },
  "form-submit#suscribete": {
    "props": {
      "label": "Enviar"
    }
  },

  "form-success#suscribete": {
    "children": [
      "rich-text#suscribete-success-submit"
    ]
  },
  "rich-text#suscribete-success-submit": {
    "props": {
      "text": "GRACIAS POR SUSCRIBIRTE, TE DAMOS LA BIENVENIDA A SM, YA TIENES UN 15% DE DCTO EN TU PRIMERA COMPRA, SOLO DEBES INGRESAR ESTE CUPÓN EN TU CARRITO DE COMPRAS: **BIENVENIDO15**",
      "textAlignment": "CENTER",
      "textPosition": "CENTER"
    }
  }, 

  "sandbox#footerScript01": {
    "props": {
      "width": "0px",
      "height": "0px",
      "initialContent": "<script src='https://cdn.embluemail.com/pixeltracking/pixeltracking.js?code=c798dc8379f94cc6257fb721081f18d6'></script>"
    }
  },

  "sandbox#footerScript02": {
    "props": {
      "width": "0px",
      "height": "0px",
      "initialContent": "<script>(function(d,t,u,s,c,f){f=function(m){m=new Date();return m.getFullYear()+''+(m.getMonth()+1)+''+m.getDate()+'T'+m.getHours()+''+m.getMinutes()+''+m.getSeconds()}; u='https://widgets-static.embluemail.com/accounts/6178618AE8B887D75/scripts/sw_6178.js?ts='+f();s=d.createElement(t); s.async=1;s.src=u;c=d.getElementsByTagName(t)[0];c.parentNode.insertBefore(s,c);})(document,'script');</script>"
    }
  },

  "sandbox#footerScript03": {
    "props": {
      "width": "0px",
      "height": "0px",
      "initialContent": "<script> gtag('event','conversion', {'send_to': 'AW-123456789/AbC-D_efG-h12_34-567','value': 123.05,'currency': 'USD' });</script>"
    }
  }
}
