{
  "vtex.menu@2.x:menu#SocialLinks": {
    "children": ["flex-layout.col#SocialLinks"],
    "props":{
      "blockClass": "menu-footer-container-email"
    }
  },

  "flex-layout.col#SocialLinks": {
    "children": [
      "rich-text#SocialLinks-Email",
      "rich-text#Encuentra-tu-tienda"
    ],
    "props": {
      "blockClass": "container-socialLinks-footer"
    }    
  },

  "rich-text#SocialLinks-Email": {
    "props": {
      "blockClass": "email-footer",
      "text": "![](https://coliseum.vteximg.com.br/arquivos/email-new.png?v=637213537652130000)[ecommerce@stevemaddenperu.com](mailto:ecommerce@stevemaddenperu.com)"
    }
  },

  "rich-text#Encuentra-tu-tienda": {
    "props": {
      "blockClass": "encuentra-tu-tienda-footer",
      "text": "![](/arquivos/nuestras-tiendas.png) [Nuestras tiendas](/encuentra-tu-tienda)"
    }
  },
  // "flex-layout.row#SocialLinks-Network":{
  //     "children":{
  //         "image"
  //     }
  // }

  "vtex.menu@2.x:menu#ContactLinks": {
    "children": [
      "menu-item#title-contacto",
      "menu-item#item-contactenos",
      "menu-item#item-mis-pedidos"
    ],
    "props": {
      "orientation": "vertical",
      "blockClass": "menu-footer-container"
    }
  },

  "menu-item#title-contacto": {
    "props": {
      "id": "title-contacto",
      "type": "custom",
      "iconId": null,
      "highlight": false,
      "itemProps": {
        "type": "internal",
        "href": "",
        "noFollow": false,
        "tagTitle": "Contacto",
        "text": "CONTACTO"
      },
      "blockClass": "menu-title"
    }
  },

  "menu-item#item-contactenos": {
    "props": {
      "id": "item-contactenos",
      "type": "custom",
      "iconId": null,
      "highlight": false,
      "itemProps": {
        "type": "internal",
        "href": "/contactenos",
        "noFollow": true,
        "tagTitle": "Contáctenos",
        "text": "Contáctenos"
      },
      "blockClass": "menu-item"
    }
  },

  "menu-item#item-mis-pedidos": {
    "props": {
      "id": "item-mis-pedidos",
      "type": "custom",
      "iconId": null,
      "highlight": false,
      "itemProps": {
        "type": "internal",
        "href": "/account#/orders",
        "noFollow": true,
        "tagTitle": "Mis Pedidos",
        "text": "Mis Pedidos"
      },
      "blockClass": "menu-item"
    }
  },

  "vtex.menu@2.x:menu#HelpLinks": {
    "children": [
      "menu-item#title-ayuda",
      //"menu-item#item-como-comprar",
      "menu-item#item-terminos-y-condiciones",
      "menu-item#item-cambios-y-devoluciones",
      "menu-item#item-legales-y-promociones",
      //"menu-item#item-libro-de-reclamaciones",      
      "menu-item#item-preguntas-frecuentes",
      "menu-item#item-politica-de-cookies",
      "menu-item#item-politica-de-privacidad",
      "link#libro-de-reclamaciones"
    ],
    "props": {
      "orientation": "vertical",
      "blockClass": ["menu-footer-container","menu-footer-container-border"]
    }
  },

  "menu-item#title-ayuda": {
    "props": {
      "id": "title-ayuda",
      "type": "custom",
      "iconId": null,
      "highlight": false,
      "itemProps": {
        "type": "internal",
        "href": "",
        "noFollow": false,
        "tagTitle": "Ayuda",
        "text": "AYUDA"
      },
      "blockClass": "menu-title"
    }
  },

  "menu-item#item-como-comprar": {
    "props": {
      "id": "item-como-comprar",
      "type": "custom",
      "iconId": null,
      "highlight": false,
      "itemProps": {
        "type": "internal",
        "href": "/como-comprar",
        "noFollow": true,
        "tagTitle": "Como comprar",
        "text": "Como comprar"
      },
      "blockClass": "menu-item"
    }
  },

  "menu-item#item-terminos-y-condiciones": {
    "props": {
      "id": "item-terminos-y-condiciones",
      "type": "custom",
      "iconId": null,
      "highlight": false,
      "itemProps": {
        "type": "internal",
        "href": "/terminos-y-condiciones",
        "noFollow": true,
        "tagTitle": "Términos y condiciones",
        "text": "Términos y condiciones"
      },
      "blockClass": "menu-item"
    }
  },

  "menu-item#item-cambios-y-devoluciones": {
    "props": {
      "id": "item-cambios-y-devoluciones",
      "type": "custom",
      "iconId": null,
      "highlight": false,
      "itemProps": {
        "type": "internal",
        "href": "/cambios-y-devoluciones",
        "noFollow": true,
        "tagTitle": "Cambios y condiciones",
        "text": "Cambios y condiciones"
      },
      "blockClass": "menu-item"
    }
  },

  "menu-item#item-legales-y-promociones": {
    "props": {
      "id": "item-legales-y-promociones",
      "type": "custom",
      "iconId": null,
      "highlight": false,
      "itemProps": {
        "type": "internal",
        "href": "/legales-promociones",
        "noFollow": true,
        "tagTitle": "Legales y promociones",
        "text": "Legales y promociones"
      },
      "blockClass": "menu-item"
    }
  },

  "menu-item#item-libro-de-reclamaciones": {
    "props": {
      "id": "item-libro-de-reclamaciones",
      "type": "custom",
      "iconId": null,
      "highlight": false,
      "itemProps": {
        "type": "internal",
        "href": "/libro-de-reclamaciones",
        "noFollow": true,
        "tagTitle": "Libro de Reclamaciones",
        "text": "Libro de Reclamaciones"
      },
      "blockClass": "menu-item"
    }
  },

  "link#libro-de-reclamaciones": {
    "props": {
      "blockClass": "img-libro-de-reclamaciones",
      "href": "/libro-de-reclamaciones"
    },
    "children": ["image#libro-de-reclamaciones"]
  },

  "image#libro-de-reclamaciones": {
    "props": {
      "title": "libro-de-reclamaciones",
      "src": "/arquivos/icon-libro.png",
      "width": "70%"
    }
  },

  "menu-item#item-preguntas-frecuentes": {
    "props": {
      "id": "item-preguntas-frecuentes",
      "type": "custom",
      "iconId": null,
      "highlight": false,
      "itemProps": {
        "type": "internal",
        "href": "/preguntas-frecuentes",
        "noFollow": true,
        "tagTitle": "Preguntas Frecuentes",
        "text": "Preguntas Frecuentes"
      },
      "blockClass": "menu-item"
    }
  }, 

  "menu-item#item-politica-de-cookies": {
    "props": {
      "id": "item-politica-de-cookies",
      "type": "custom",
      "iconId": null,
      "highlight": false,
      "itemProps": {
        "type": "internal",
        "href": "/politica-de-cookies",
        "noFollow": true,
        "tagTitle": "Politica de Cookies",
        "text": "Politica de Cookies"
      },
      "blockClass": "menu-item"
    }
  },  

  "menu-item#item-politica-de-privacidad": {
    "props": {
      "id": "item-politica-de-privacidad",
      "type": "custom",
      "iconId": null,
      "highlight": false,
      "itemProps": {
        "type": "internal",
        "href": "/politica-de-privacidad",
        "noFollow": true,
        "tagTitle": "Politica de Privacidad",
        "text": "Politica de Privacidad"
      },
      "blockClass": "menu-item"
    }
  },

  "vtex.menu@2.x:menu#CategoryLinks": {
    "children": [
      "menu-item#title-categoria",
      "menu-item#item-categoria-lo-nuevo",
      "menu-item#item-categoria-mujer",
      //"menu-item#item-categoria-calzado",
      "menu-item#item-categoria-accesorios",
      //"menu-item#item-categoria-madden-girl",
      "menu-item#item-categoria-sale"
    ],
    "props": {
      "orientation": "vertical",
      "blockClass": ["menu-footer-container"]
    }
  },

  "menu-item#title-categoria": {
    "props": {
      "id": "title-categoria",
      "type": "custom",
      "iconId": null,
      "highlight": false,
      "itemProps": {
        "type": "internal",
        "href": "",
        "noFollow": false,
        "tagTitle": "CATEGORIA",
        "text": "CATEGORIA"
      },
      "blockClass": "menu-title"
    }
  },

  "menu-item#item-categoria-lo-nuevo": {
    "props": {
      "id": "item-categoria-lo-nuevo",
      "type": "custom",
      "iconId": null,
      "highlight": false,
      "itemProps": {
        "type": "internal",
        "href": "/mujer/137?map=c,productClusterIds&order=OrderByReleaseDateDESC",
        "noFollow": true,
        "tagTitle": "Lo nuevo",
        "text": "Lo nuevo"
      },
      "blockClass": "menu-item"
    }
  },

  "menu-item#item-categoria-mujer": {
    "props": {
      "id": "item-categoria-mujer",
      "type": "custom",
      "iconId": null,
      "highlight": false,
      "itemProps": {
        "type": "internal",
        "href": "/mujer/d",
        "noFollow": true,
        "tagTitle": "MUJER",
        "text": "Mujer"
      },
      "blockClass": "menu-item"
    }
  },

  "menu-item#item-categoria-calzado": {
    "props": {
      "id": "item-categoria-calzado",
      "type": "custom",
      "iconId": null,
      "highlight": false,
      "itemProps": {
        "type": "internal",
        "href": "/calzado/d",
        "noFollow": true,
        "tagTitle": "CALZADO",
        "text": "Calzado"
      },
      "blockClass": "menu-item"
    }
  },

  "menu-item#item-categoria-accesorios": {
    "props": {
      "id": "item-categoria-accesorios",
      "type": "custom",
      "iconId": null,
      "highlight": false,
      "itemProps": {
        "type": "internal",
        "href": "/accesorios/d",
        "noFollow": true,
        "tagTitle": "ACCESORIOS",
        "text": "Accesorios"
      },
      "blockClass": "menu-item"
    }
  },

  "menu-item#item-categoria-madden-girl": {
    "props": {
      "id": "item-categoria-madden-girl",
      "type": "custom",
      "iconId": null,
      "highlight": false,
      "itemProps": {
        "type": "internal",
        "href": "/mujer/madden-girl?map=c,b&order=OrderByReleaseDateDESC",
        "noFollow": true,
        "tagTitle": "Madden girl",
        "text": "Madden girl"
      },
      "blockClass": "menu-item"
    }
  },

  "menu-item#item-categoria-sale": {
    "props": {
      "id": "item-categoria-sale",
      "type": "custom",
      "iconId": null,
      "highlight": false,
      "itemProps": {
        "type": "internal",
        "href": "/mujer/sale?map=c,b&order=OrderByReleaseDateDESC",
        "noFollow": true,
        "tagTitle": "Sale",
        "text": "Sale"
      },
      "blockClass": "menu-item"
    }
  }  

}
