{
  "vtex.menu@2.x:menu#Products": {
    "props": {
      "orientation": "vertical"
    },
    "children": [
      "menu-item#news",
      "menu-item#blackfriday",
      "menu-item#sale",
      "menu-item#personalization"
    ]
  },
  "menu-item#news": {
    "props": {
      "id": "menu-item-news",
      "type": "custom",
      "iconId": null,
      "highlight": false,
      "itemProps": {
        "type": "internal",
        "href": "#",
        "noFollow": false,
        "tagTitle": "News",
        "text": "News"
      }
    }
  },
  "menu-item#blackfriday": {
    "props": {
      "id": "menu-item-black-friday",
      "type": "custom",
      "iconId": null,
      "highlight": false,
      "itemProps": {
        "type": "internal",
        "href": "#",
        "noFollow": false,
        "tagTitle": "BlackFriday",
        "text": "Black Friday"
      }
    }
  },
  "menu-item#sale": {
    "props": {
      "id": "menu-item-sale",
      "type": "custom",
      "iconId": null,
      "highlight": false,
      "itemProps": {
        "type": "internal",
        "href": "#",
        "noFollow": false,
        "tagTitle": "Sale",
        "text": "Sale"
      }
    }
  },
  "menu-item#personalization": {
    "props": {
      "id": "menu-item-personalization",
      "type": "custom",
      "iconId": null,
      "highlight": false,
      "itemProps": {
        "type": "internal",
        "href": "#",
        "noFollow": false,
        "tagTitle": "Personalization",
        "text": "Personalization"
      }
    }
  },

  "vtex.menu@2.x:menu#footer-decoration": {
    "props": {
      "orientation": "vertical"
    },
    "children": [
      "menu-item#smartphones",
      "menu-item#videogames",
      "menu-item#tvs"
    ]
  },

  "menu-item#smartphones": {
    "props": {
      "id": "menu-item-smartphones",
      "type": "custom",
      "iconId": null,
      "highlight": false,
      "itemProps": {
        "type": "internal",
        "href": "/decoration/smartphones",
        "noFollow": true,
        "tagTitle": "Smartphones",
        "text": "Smartphones"
      }
    }
  },

  "menu-item#videogames": {
    "props": {
      "id": "menu-item-videogames",
      "type": "custom",
      "iconId": null,
      "highlight": false,
      "itemProps": {
        "type": "internal",
        "href": "/decoration/videogames",
        "noFollow": true,
        "tagTitle": "Videogames",
        "text": "Videogames"
      }
    }
  },

  "menu-item#tvs": {
    "props": {
      "id": "menu-item-tvs",
      "type": "custom",
      "iconId": null,
      "highlight": false,
      "itemProps": {
        "type": "internal",
        "href": "/decoration/tvs",
        "noFollow": true,
        "tagTitle": "TVs",
        "text": "TVs"
      }
    }
  },

  "vtex.menu@2.x:menu#footer-bags": {
    "props": {
      "orientation": "vertical"
    },
    "children": [
      "menu-item#bags",
      "menu-item#backpacks",
      "menu-item#necessaire"
    ]
  },

  "menu-item#bags": {
    "props": {
      "id": "menu-item-bags",
      "type": "custom",
      "iconId": null,
      "highlight": false,
      "itemProps": {
        "type": "internal",
        "href": "/bags/d",
        "noFollow": true,
        "tagTitle": "Bags",
        "text": "Bags"
      }
    }
  },

  "menu-item#backpacks": {
    "props": {
      "id": "menu-item-backpacks",
      "type": "custom",
      "iconId": null,
      "highlight": false,
      "itemProps": {
        "type": "internal",
        "href": "/bags/backpacks",
        "noFollow": true,
        "tagTitle": "Backpacks",
        "text": "Backpacks"
      }
    }
  },

  "menu-item#necessaire": {
    "props": {
      "id": "menu-item-necessaire",
      "type": "custom",
      "iconId": null,
      "highlight": false,
      "itemProps": {
        "type": "internal",
        "href": "/bags/necessaire",
        "noFollow": true,
        "tagTitle": "Necessaire",
        "text": "Necessaire"
      }
    }
  }
}