{
  "store.product": {
    "children": [
      "modal-product-add",
      "flex-layout.row#product-breadcrumb",      
      "responsive-layout.mobile#pdp-name",
      "responsive-layout.mobile#price",
      "responsive-layout.mobile#product-name-sku-color",

      "responsive-layout.mobile#product-main",
      "responsive-layout.desktop#product-main",

      "shelf.relatedProducts#view",
      "product-reviews",
      "product-questions-and-answers"
    ],
    "props":{
      "blockClass":"contenedor-izquierdo-pdp"
    }
  },

  // Iinicio Popup Modal Add--Cart
  "modal-product-add": {
    "props": {
      "RelatedProductsShelf": "flex-layout.row#relatedProducts-body2",
      "RelatedProductsShelfMobile": "flex-layout.row#relatedProducts-body-mobile"
    }
  },

  "flex-layout.row#relatedProducts-body2": {
    "children": [
      //"shelf.relatedProducts#compra"
    ],
    "props": {
      "preserveLayoutOnMobile": true,
      "marginBottom": "5",
      "blockClass": "related-products"
    }
  },
  /*
  "shelf.relatedProducts#compra": {
    "blocks": [
      "product-summary.shelf#pdp-complements"
    ],
    "props": {
      "recommendation": "view",
      "productList": {
        "arrows": false,
        "titleText": "",
        "maxItems": 14,
        "minItemsPerPage": 1,
        "itemsPerPage": 1
      },
      "blockClass": "related-slider"
    }
  },
  "product-summary.shelf#pdp-complements": {
    "props": {
      "blockClass": "pdp-complements"
    },
    "children": [
      "product-summary-image", 
      "flex-layout.col#name-price-brand",
      "product-summary-sku-selector#talla",
      "product-quantity",
      "vtex.add-to-cart-button:add-to-cart-button"
    ]
  },
  "flex-layout.col#name-price-brand": {
    "props": {
      "blockClass": "name-price-brand-related"
    },
    "children": [
      "vtex.store-components:product-brand",
      "product-summary-name",
      "product-identifier.product"
      //"flex-layout.col#price"
    ]
  },
  "product-identifier.product": {
    "props": {
      "idField": "skuEan",
      "label": "default"
    }
  },

  "product-summary-sku-selector#talla": {
    "props": {
      "blockClass": "talla",
      "showVariationsLabels": true,
      "visibleVariations": [
        "Talla"
      ],
      "displayMode": "select",
      "initialSelection": "complete"
    }
  }, 
  */ 

  "flex-layout.row#relatedProducts-body-mobile": {
    "children": [
      //"shelf.relatedProducts"
    ],
    "props": {
      "preserveLayoutOnMobile": true,
      "marginBottom": "2",
      "blockClass": [
        "related-products-bottom",
        "related-produts-mobile"
      ]
    }
  },
  /*
  "shelf.relatedProducts": {
    "blocks": [
      "vtex.product-summary:product-summary.shelf"
    ],
    "props": {
      "recommendation": "view",
      "autoplay": true,
      "productList": {
        "arrows": true,
        "titleText": "",
        "maxItems": 14,
        "minItemsPerPage": 2,
        "itemsPerPage": 5,
        "autoplay": true
      },
      "blockClass": "related-slider-bottom"
    }
  },
  */
  // Fin Popup Modal Add--Cart


  "flex-layout.row#product-breadcrumb": {
    "props": {
      "marginTop": 4,
      "blockClass":["breadcrumb","breadcrumb-pdp"]
    },
    "children": ["breadcrumb"]
  },
  "acuotaz-addon": {
    "props": {
      "clientId": "se_stevemadden_pos_pe"
    }
  },  

  "flex-layout.col#description": {
    "props": {
      "marginBottom": 7,
      "blockClass": "descripcion-del-producto"
    },
    "children": ["product-description"]
  },

  "responsive-layout.desktop#product-main": {
    "children": [
      "flex-layout.row#product-main"
    ]
  },   
  "flex-layout.row#product-main": {
    "props": {
      "colGap": 7,
      "rowGap": 7,
      "marginTop": 4,
      "marginBottom": 7,
      "paddingTop": 7,
      "paddingBottom": 7
    },
    "children": ["flex-layout.col#stack","flex-layout.col#right-col"]
  },
  "responsive-layout.mobile#product-main": {
    "children": [
      "flex-layout.row#product-main-mobil"
    ]
  }, 
  "flex-layout.row#product-main-mobil": {
    "props": {
      "colGap": 7,
      "rowGap": 7,
      "marginTop": 4,
      "marginBottom": 7,
      "paddingTop": 7,
      "paddingBottom": 7
    },
    "children": ["stack-layout","flex-layout.col#right-col","flex-layout.col#envioydevolucion","flex-layout.col#description"]
  },  

  "stack-layout": {
    "props": {
      "blockClass": "product"
    },
    "children": [
      "flex-layout.row#product-image",
      "product-bookmark",
      "product-specification-badges",
      "modal-trigger#modal-video-producto"
    ]
  },

  "product-specification-badges": {
    "props": {
      "specificationGroupName": "Group",
      "specificationName": "On Sale",
      "visibleWhen": "True",
      "displayValue": "SPECIFICATION_NAME"
    }
  },

  "modal-trigger#modal-video-producto": {
    "children": [      
      "modal-trigger#popupVideoProdcuto",
      "icon-expand"
    ],
    "props": {
      "blockClass": "quickview"
    }
  },
  "modal-trigger#popupVideoProdcuto":{
    "children":[
      "rich-text#txtVideoProducto",
      "modal-layout#modal-video-producto"
    ]    
  },
  "rich-text#txtVideoProducto":{
    "props":{
      "text": "**VER VIDEO**"
    }
  },
  "modal-layout#modal-video-producto":{
    "children":[
      "responsive-layout.desktop#popupVideo",
      //"responsive-layout.mobile#mobileMujerCalzado",
      "modal-actions.close#guiadetallas"
    ]   
  },
  "responsive-layout.desktop#popupVideo":{
    "children":[
      "flex-layout.row#poupVideo"
    ]     
  }, 
  "flex-layout.row#poupVideo": {
    "children": [
      "product-specifications#product"
    ]    
  },
   "product-specifications#product": {
    "props": {     
      "showSpecificationsTab": true,
      "visibleSpecifications": ["Video"]
    }
  },       


  

  "flex-layout.col#stack": {
    "children": ["stack-layout", "flex-layout.col#description", "flex-layout.col#envioydevolucion"],
    "props": {
      "width": "65%",
      "rowGap": 0
    }
  },

  "flex-layout.col#envioydevolucion":{
    "children":[
      "disclosure-layout-group#envio-devolucion"
    ]
  },

  "disclosure-layout-group#envio-devolucion": {
    "children": [
      "disclosure-layout#first-envio-devolucion"
    ]
  },
  "disclosure-layout#first-envio-devolucion": {
    "props": {
      "animated": true
    },
    "children": ["disclosure-trigger#first-envio-devolucion", "disclosure-content#first-envio-devolucion"]
  },
  "disclosure-trigger#first-envio-devolucion": {
    "props": {
      "blockClass": "question",
      "as": "div"
    },
    "children": ["disclosure-state-indicator#product", "rich-text#question1-envio-devolucion"]
  },
  "disclosure-content#first-envio-devolucion": {
    "props": {
      "blockClass": "answer"
    },
    "children": ["rich-text#answer1-envio-devolucion"]
  },
  "disclosure-state-indicator#product": {
    "props": {
      "Show": "icon-caret#down-product",
      "Hide": "icon-caret#up-product"
    }
  },
  "icon-caret#down-product": {
    "props": {
      "orientation": "down"
    }
  },
  "icon-caret#up-product": {
    "props": {
      "orientation": "up"
    }
  },
  "rich-text#question1-envio-devolucion": {
    "props": {
      "text": "ENVIO Y DEVOLUCIÓN"
    }
  },
  "rich-text#answer1-envio-devolucion": {
    "props": {
      "text": "Para cambios de talla o artículo(s), la coordinación será previamente con nuestro Servicio de Atención al Cliente a través de ecommerce@stevemaddenperu.com. El cambio podrá realizarse siempre y cuando cumplan las siguientes condiciones: - Producto exclusivamente comprado a través de WWW.COLISEUM.COM.PE - Hasta 7 días calendario luego de haber recibido el producto. - El artículo debe estar nuevo, sin uso y con etiquetas, adicionalmente el empaque debe estar en buenas condiciones. - No se permiten cambios en tiendas Outlet. - No se hacen cambios de productos adquiridos en SALE o con descuento por alguna promoción activa o vigente.- Las devoluciones por calidad únicamente podrán realizarse vía nuestro Servicio de Atención a Clientes. Proceso de cambio aprobado por Coliseum: - Deberás mostrar el mensaje de confirmación en tienda, enviado por nuestro Servicio de Atención al cliente a través de nuestros canales oficiales.",
      "blockClass": "texto-envioydevolucion"
    }
  },

  "flex-layout.row#product-image": {
    "children": ["product-images"]
  },

  "product-images": {
    "props": {
      "aspectRatio": {
        "desktop": "auto",
        "phone": "16:9"
      },
      "displayMode": "carousel",
      "displayThumbnailsArrows": true
    }
  },

  "product-images#mobile": {
    "props": {
      "aspectRatio": {
        "desktop": "auto",
        "phone": "16:9"
      },
      "displayMode": "carousel",
      "showNavigationArrows": false
    }
  },
  
  "flex-layout.col#right-col": {
    "props": {
      "preventVerticalStretch": true,
      "rowGap": 0,
      "width": "30%",
      "blockClass": "contenedor-derecho-pdp"
    },
    "children": [     
      "flex-layout.row#product-breadcrumb", 
      "responsive-layout.desktop#pdp-name",    
      "product-rating-summary",
      "responsive-layout.desktop#price",
      "responsive-layout.desktop#product-name-sku-color",
      "product-separator",
      "shelf.relatedProducts#similars",
      
      "condition-layout.product#calzado-69", //Hombre
      "condition-layout.product#calzado-11", //Mujer

      "sku-selector",      
      "flex-layout.row#quantity",      
      //"condition-layout.product#cond03", //msn interbank
      "product-assembly-options",
      "product-gifts",
      //"flex-layout.col#buy-button",
      "add-to-cart-button#pdp",
      //"vtex.add-to-cart-button:add-to-cart-button",
      //"pickup-availability",
      //"pickup-availability-v2",
      //"availability-subscriber",
      //"availability-notify",
      //"flex-layout.col#description",
      //"shipping-simulator",
      "share#default",
      "mo-product-page",
      "acuotaz-addon",      
      "disponibilidad-tienda",
      "flex-layout.row#disponibilidad-tiendas",
      "flex-layout.row#despacho-domicilio",
      "flex-layout.row#metodos-de-pagos"
      //"flex-layout.row#texto-informativo"
    ]
  },

  "product-assembly-options": {
    "props":{
     "initiallyOpened": "always"
    },
   "children": [
    //"flex-layout.row#product-assembly-options",
    "assembly-option-input-values"
   ]
  },

  "shelf.relatedProducts#similars": {
    "blocks": [
      "product-summary.shelf#similars"
    ],
    "props": {
      "blockClass": "similars-products",
      "recommendation": "similars",
      "productList": {
        "maxItems": 10,
        "showTitle": true,
        "arrows": true,
        "infinite": true,
        "minItemsPerPage": 3,
        "titleText": "Color"
      }
    }
  },
  "product-summary.shelf#similars": {
    "children": [
      "stack-layout#prodsum-similar"
    ]
  },

  "responsive-layout.desktop#price": {
    "children": [
      "flex-layout.row#price"
    ]
  },
  "responsive-layout.mobile#price": {
    "children": [
      "flex-layout.row#price"
    ]
  },  

  "responsive-layout.desktop#pdp-name": {
    "children": [
      // "flex-layout.row#product-breadcrumb",
      "vtex.store-components:product-name#h2"
    ]
  },

  "responsive-layout.mobile#pdp-name": {
    "children": [
      "vtex.store-components:product-name#h2"
    ],
    "props":{
      "blockClass": "mobile-pdp-name"
    }
  },
  "vtex.store-components:product-name#h2": {
    "props": {
      "tag": "div"
    }
  },   

  "flex-layout.row#quantity":{
    "children":[
      "product-quantity"
    ]
  },

  "flex-layout.row#price":{
    "children":[  
      "flex-layout.row#selling-price",
      "product-list-price",            
      "product-price-savings#pdp"
    ],
    "props": {
      "blockClass": "container-price-pdp"
    }    
  }, 

  "product-price-savings#pdp": {
    "props": {
      "message": "{savingsPercentage}",
      "blockClass": "porcentaje-pdp"
    }
  },

  "vtex.store-components:product-name#color":{
    "props":{
      "showSku": true,
      "blockClass":"nameSku"
    }
  },

  "responsive-layout.desktop#product-name-sku-color": {
    "children": ["vtex.store-components:product-name#color"]
  },

  "responsive-layout.mobile#product-name-sku-color": {
    "children": ["vtex.store-components:product-name#color"]
  },  

  "sku-selector": {
    "props": {
      "hideImpossibleCombinations": false
    }
  },

"condition-layout.product#cond03": {
    "props": {
      "conditions": [
        {
          "subject": "productClusters",
          "arguments": {
            "id": "166"
          }
        }
      ],
      "Then": "flex-layout.row#msn-interbank-txt",
      "Else": "rich-text#vacio"
    }
  },
  "rich-text#vacio": {},
  "flex-layout.row#msn-interbank-txt": {
    "children": [
      "flex-layout.col#msn-interbank-txt",
      "flex-layout.col#msn-interbank-img"
    ],
    "props": {
      "blockClass": "msn-interbank"
    }
  },
  "flex-layout.col#msn-interbank-txt":{
    "children":["rich-text#msn-interbank-txt"],
    "props": {
      "width": "70%",
      "blockClass": "msn-interbank-txt",
      "verticalAlign": "middle"    
    }    
  },
  "rich-text#msn-interbank-txt":{
      "props":{
        "text": "**+20% dscto. usando el cupón**",
        "blockClass":"descuento-interbank"          
    }
  },
  "image#msn-interbank-img":{
    "props":{
      "src": "/arquivos/CUPON-IBK-10-10-2022.png",
      "blockClass": "img-msn-interbank"
    }
  },
  "flex-layout.col#msn-interbank-img":{
    "children":["image#msn-interbank-img"],
    "props": {
      "width": "30%",
      "blockClass": "msn-interbank-img",
      "verticalAlign": "middle"       
    } 
  },

  "flex-layout.col#buy-button": {
    "props": {
      "marginTop": 4,
      "marginBottom": 7,
      "blockClass": "agregar-al-carro-container"
    },
    "children": ["add-to-cart-button#pdp"]
  },

  "add-to-cart-button#pdp":{
    "props":{
      "customPixelEventId": "pdp-add-to-cart",
      "blockClass": "agregar-al-carro"
    }
  },






  "rich-text#vacio-talla": {},

  "modal-actions.close#guiadetallas":{
    "props":{
      "label": "",
      "blockClass": "modal-btn-close"
    }
  },

  "rich-text#guiadetallas":{
    "props":{
      "text": "**GUIA DE TALLAS**",
      "blockClass":"tallas"
    }
  },

  "condition-layout.product#calzado-11": {
    "title": "Guía de Tallas de Mujer",
    "props": {
      "conditions": [
        {
          "subject": "categoryTree",
          "arguments": {
            "id": "11"
          }
        }
      ],
      "Then": "modal-trigger#guiaTallasCalzadoMujer",
      "Else": "rich-text#vacio-talla"
    }
  }, 

  "modal-trigger#guiaTallasCalzadoMujer":{
    "children":[
      "rich-text#guiadetallas",
      "modal-layout#modal-tallas-calzado-mujer"
    ], 
    "props":{
        "blockClass":"guiadetallas"
    }    
  },

  "modal-layout#modal-tallas-calzado-mujer":{
    "children":[
      "responsive-layout.desktop#desktopMujerCalzado",
      "responsive-layout.mobile#mobileMujerCalzado",
      "modal-actions.close#guiadetallas"
    ]
  },

  "responsive-layout.desktop#desktopMujerCalzado":{
    "children":[
      //"flex-layout.col#modal-tallas"
      "image#img-tallas-destokp-calzado-mujer"
    ]
  },

  /*
  "flex-layout.col#modal-tallas":{
    "children":[
      "rich-text#guia-tallas-titulo-mujer",
      "image#img-tallas-destokp-calzado-mujer"
    ]
  },

  "rich-text#guia-tallas-titulo-mujer":{
    "props":{
      "text":"CONVERSIONES DE TALLAS DE MUJERES",
      "blockClass": "contenedor-texto-tallas"
    }
  },
  */

  "image#img-tallas-destokp-calzado-mujer":{
    "props":{
      "src": "/arquivos/tallas-calzado-mujer.JPG",
      "blockClass": "contenedor-tallas"
    }
  },

  "responsive-layout.mobile#mobileMujerCalzado":{
      "children":[
        //"flex-layout.col#modal-tallas-mobile"
        "image#img-tallas-mobile-calzado-mujer"
      ]
  },

  /*
  "flex-layout.col#modal-tallas-mobile":{
    "children":[
      "rich-text#guia-tallas-titulo-mujer",
      "image#img-tallas-mobile-calzado-mujer"
    ]
  },
  */

  "image#img-tallas-mobile-calzado-mujer":{
    "props":{
      "src": "/arquivos/tallas-calzado-mujer-m.jpg"
    }
  },

  "condition-layout.product#calzado-69": {
    "title": "Guía de Tallas de Hombre",
    "props": {
      "conditions": [
        {
          "subject": "categoryTree",
          "arguments": {
            "id": "69"
          }
        }
      ],
      "Then": "modal-trigger#guiaTallasCalzadoHombre",
      "Else": "rich-text#vacio-talla"
    }
  }, 

  "modal-trigger#guiaTallasCalzadoHombre":{
    "children":[
      "rich-text#guiadetallas",
      "modal-layout#modal-tallas-calzado-hombre"
    ], 
    "props":{
        "blockClass":"guiadetallas"
    }    
  },

  "modal-layout#modal-tallas-calzado-hombre":{
    "children":[
      "responsive-layout.desktop#desktopHombreCalzado",
      "responsive-layout.mobile#mobileHombreCalzado",
      "modal-actions.close#guiadetallas"
    ]
  },

  "responsive-layout.desktop#desktopHombreCalzado":{
    "children":[
      "image#img-tallas-destokp-calzado-hombre"
    ]
  },

  "image#img-tallas-destokp-calzado-hombre":{
    "props":{
      "src": "/arquivos/tallas-calzado-hombre.JPG",
      "blockClass": "contenedor-tallas"
    }
  },

  "responsive-layout.mobile#mobileHombreCalzado":{
      "children":[
        "image#img-tallas-mobile-calzado-hombre"
      ]
  },

  "image#img-tallas-mobile-calzado-hombre":{
    "props":{
      "src": "/arquivos/tallas-calzado-hombre-m.jpg"
    }
  },


  "share#default": {
    "props": {
      "social": {
        "Facebook": true,
        "WhatsApp": true,
        "Twitter": false,
        "Pinterest": true
      }
    }
  },
  "shelf.relatedProducts#view": {
    "blocks": [
        "product-summary.shelf"
    ],
    "props": {
        "recommendation": "editor.relatedProducts.view",
        "productList": {
            "maxItems": 12,
            "itemsPerPage": 4,
            "minItemsPerPage": 1,
            "arrows": true,
            "titleText": "PRODUCTOS RELACIONADOS"
        },
        "context": {
            "maxItemsPerPage": 9,
            "hideUnavailableItems": true
        }
    }
  },

  "flex-layout.row#disponibilidad-tiendas": {
    "children": [      
      "image#disponibilidad-img",
      "flex-layout.col#disponibilidad-tiendas"      
    ],
    "props": {           
      "blockClass": "disponibilidad-izquierda"
    }    
  },
  "image#disponibilidad-img": {
    "props": {
      "src": "/arquivos/disponibilidad.png",
      "maxHeight": "35px",
      "blockClass": "disponibilidad-slider-ico"
    }
  },  
  "flex-layout.col#disponibilidad-tiendas": {
    "children": [      
      "rich-text#texto-derecha-11",
      "rich-text#texto-derecha-12"
    ],
    "props": {      
      "width": "84%",
      "blockClass": "disponibilidad-item-container"
    }     
  },  
  "rich-text#texto-derecha-11": {
    "props": {
      "blockClass": "texto-derecha-titulo",
      "text": "Retira en tienda"
    }
  }, 
  "rich-text#texto-derecha-12": {
    "props": {
      "blockClass": "texto-derecha-disponibilidad",
      "text": "Ver disponibilidad"
    }
  },
  
  "flex-layout.row#despacho-domicilio": {
    "children": [      
      "image#despacho-img",
      "flex-layout.col#despacho-domicilio"      
    ],
    "props": {           
      "blockClass": "disponibilidad-izquierda"
    }    
  },
  "image#despacho-img": {
    "props": {
      "src": "/arquivos/icon-tracking-v2.png",
      "maxHeight": "22px",
      "blockClass": "disponibilidad-slider-ico"
    }
  },  
  "flex-layout.col#despacho-domicilio": {
    "children": [      
      "rich-text#texto-derecha-21",
      "rich-text#texto-derecha-22"
    ],
    "props": {      
      "width": "84%",
      "blockClass": "disponibilidad-item-container"
    }     
  },  
  "rich-text#texto-derecha-21": {
    "props": {
      "blockClass": "texto-derecha-titulo",
      "text": "Despacho a domicilio"
    }
  }, 
  "rich-text#texto-derecha-22": {
    "props": {
      "blockClass": "texto-derecha-despacho",
      "text": "Ver disponibilidad"
    }
  },     

  "flex-layout.row#metodos-de-pagos":{
    "children":["rich-text#metodosdepago", "image#metodos-de-pago"],
    "props":{
      "blockClass":"contenedor-medios-de-pago"
    }
  },

  "rich-text#metodosdepago":{
    "props":{
      "text": "Métodos de pago",
      "blockClass":"text-metodos-de-pagos"
    }
  },
  "image#metodos-de-pago":{
    "props":{
      "src":"/arquivos/metodos-pago-pdp.png",
      "blockClass":"metodos-de-pagos"
    }

  },
    "flex-layout.row#texto-informativo":{
      "children":["rich-text#description-info"],
      "props":{
        "blockClass":"texto-informativo"
      }
    },

    "rich-text#description-info":{
      "props":{
        "text": "RETRASOS EN ENVÍO DE PEDIDOS <p>Estamos presentando retrasos en la entrega de pedidos en nuestras zonas de cobertura debido a la coyuntura de transportes. Tener en cuenta que, el plazo normal de entrega a Lima es de esta 5 días habiles y en provincia es de hasta 10 días hábiles; no se considera sábados, domingos ni feriados.</p> [Leer más en legales](/legales-promociones)",
        "blockClass":"description-info"
      }
    }     

}
